Quantitative Text Analysis in R
…
---

### **Detecting**, extracting, replacing and removing patterns

Filter a dataset: ***WITHOUT** string manipulation*

```r
palmerpenguins::penguins_raw %>% 
  filter(Species == "Gentoo penguin (Pygoscelis papua)")
```

```
#> # A tibble: 124 x 17
#>    studyName `Sample Number` Species         Region Island Stage `Individual ID`
#>    <chr>               <dbl> <chr>           <chr>  <chr>  <chr> <chr>          
#>  1 PAL0708                 1 Gentoo penguin~ Anvers Biscoe Adul~ N31A1          
#>  2 PAL0708                 2 Gentoo penguin~ Anvers Biscoe Adul~ N31A2          
#>  3 PAL0708                 3 Gentoo penguin~ Anvers Biscoe Adul~ N32A1          
#>  4 PAL0708                 4 Gentoo penguin~ Anvers Biscoe Adul~ N32A2          
#>  5 PAL0708                 5 Gentoo penguin~ Anvers Biscoe Adul~ N33A1          
#>  6 PAL0708                 6 Gentoo penguin~ Anvers Biscoe Adul~ N33A2          
#>  7 PAL0708                 7 Gentoo penguin~ Anvers Biscoe Adul~ N34A1          
#>  8 PAL0708                 8 Gentoo penguin~ Anvers Biscoe Adul~ N34A2          
#>  9 PAL0708                 9 Gentoo penguin~ Anvers Biscoe Adul~ N35A1          
#> 10 PAL0708                10 Gentoo penguin~ Anvers Biscoe Adul~ N35A2          
#> # ... with 114 more rows, and 10 more variables: `Clutch Completion` <chr>,
#> #   `Date Egg` <date>, `Culmen Length (mm)` <dbl>, `Culmen Depth (mm)` <dbl>,
#> #   `Flipper Length (mm)` <dbl>, `Body Mass (g)` <dbl>, Sex <chr>,
#> #   `Delta 15 N (o/oo)` <dbl>, `Delta 13 C (o/oo)` <dbl>, Comments <chr>
```
  
---

### **Detecting**, extracting, replacing and removing patterns
  
Filter a dataset: ***WITH** string manipulation*

```r
palmerpenguins::penguins_raw %>% 
  filter(str_detect(Species, "Gentoo"))
```

```
#> # A tibble: 124 x 17
#>    studyName `Sample Number` Species         Region Island Stage `Individual ID`
#>    <chr>               <dbl> <chr>           <chr>  <chr>  <chr> <chr>          
#>  1 PAL0708                 1 Gentoo penguin~ Anvers Biscoe Adul~ N31A1          
#>  2 PAL0708                 2 Gentoo penguin~ Anvers Biscoe Adul~ N31A2          
#>  3 PAL0708                 3 Gentoo penguin~ Anvers Biscoe Adul~ N32A1          
#>  4 PAL0708                 4 Gentoo penguin~ Anvers Biscoe Adul~ N32A2          
#>  5 PAL0708                 5 Gentoo penguin~ Anvers Biscoe Adul~ N33A1          
#>  6 PAL0708                 6 Gentoo penguin~ Anvers Biscoe Adul~ N33A2          
#>  7 PAL0708                 7 Gentoo penguin~ Anvers Biscoe Adul~ N34A1          
#>  8 PAL0708                 8 Gentoo penguin~ Anvers Biscoe Adul~ N34A2          
#>  9 PAL0708                 9 Gentoo penguin~ Anvers Biscoe Adul~ N35A1          
#> 10 PAL0708                10 Gentoo penguin~ Anvers Biscoe Adul~ N35A2          
#> # ... with 114 more rows, and 10 more variables: `Clutch Completion` <chr>,
#> #   `Date Egg` <date>, `Culmen Length (mm)` <dbl>, `Culmen Depth (mm)` <dbl>,
#> #   `Flipper Length (mm)` <dbl>, `Body Mass (g)` <dbl>, Sex <chr>,
#> #   `Delta 15 N (o/oo)` <dbl>, `Delta 13 C (o/oo)` <dbl>, Comments <chr>
```
…
