Quantitative Text Analysis in R
…
## `tidyverse ` style syntax

Read from top to bottom and from left to right and the `%>%` as *"and then"*.

```r
palmerpenguins::penguins %>% 
  select(species, island, body_mass_g) %>% 
  filter(island == "Dream") %>% 
  mutate(bodymass_kg = body_mass_g/1000) %>% 
  rename(which_type_of_pingu = species)
```

```
#> # A tibble: 124 x 4
#>    which_type_of_pingu island body_mass_g bodymass_kg
#>    <fct>               <fct>        <int>       <dbl>
#>  1 Adelie              Dream         3250        3.25
#>  2 Adelie              Dream         3900        3.9 
#>  3 Adelie              Dream         3300        3.3 
#>  4 Adelie              Dream         3900        3.9 
#>  5 Adelie              Dream         3325        3.32
#>  6 Adelie              Dream         4150        4.15
#>  7 Adelie              Dream         3950        3.95
#>  8 Adelie              Dream         3550        3.55
#>  9 Adelie              Dream         3300        3.3 
#> 10 Adelie              Dream         4650        4.65
#> # ... with 114 more rows
```
…
---

### **Detecting**, extracting, replacing and removing patterns

Filter a dataset: **WITHOUT** `stringr`

```r
palmerpenguins::penguins_raw %>% 
  filter(Species == "Gentoo penguin (Pygoscelis papua)")
```

```
#> # A tibble: 124 x 17
#>    studyName `Sample Number` Species         Region Island Stage `Individual ID`
#>    <chr>               <dbl> <chr>           <chr>  <chr>  <chr> <chr>          
#>  1 PAL0708                 1 Gentoo penguin~ Anvers Biscoe Adul~ N31A1          
#>  2 PAL0708                 2 Gentoo penguin~ Anvers Biscoe Adul~ N31A2          
#>  3 PAL0708                 3 Gentoo penguin~ Anvers Biscoe Adul~ N32A1          
#>  4 PAL0708                 4 Gentoo penguin~ Anvers Biscoe Adul~ N32A2          
#>  5 PAL0708                 5 Gentoo penguin~ Anvers Biscoe Adul~ N33A1          
#>  6 PAL0708                 6 Gentoo penguin~ Anvers Biscoe Adul~ N33A2          
#>  7 PAL0708                 7 Gentoo penguin~ Anvers Biscoe Adul~ N34A1          
#>  8 PAL0708                 8 Gentoo penguin~ Anvers Biscoe Adul~ N34A2          
#>  9 PAL0708                 9 Gentoo penguin~ Anvers Biscoe Adul~ N35A1          
#> 10 PAL0708                10 Gentoo penguin~ Anvers Biscoe Adul~ N35A2          
#> # ... with 114 more rows, and 10 more variables: `Clutch Completion` <chr>,
#> #   `Date Egg` <date>, `Culmen Length (mm)` <dbl>, `Culmen Depth (mm)` <dbl>,
#> #   `Flipper Length (mm)` <dbl>, `Body Mass (g)` <dbl>, Sex <chr>,
#> #   `Delta 15 N (o/oo)` <dbl>, `Delta 13 C (o/oo)` <dbl>, Comments <chr>
```
  
---

### **Detecting**, extracting, replacing and removing patterns
  
Filter a dataset: **WITH** `stringr`

```r
palmerpenguins::penguins_raw %>% 
  filter(str_detect(Species, "Gentoo"))
```

```
#> # A tibble: 124 x 17
#>    studyName `Sample Number` Species         Region Island Stage `Individual ID`
#>    <chr>               <dbl> <chr>           <chr>  <chr>  <chr> <chr>          
#>  1 PAL0708                 1 Gentoo penguin~ Anvers Biscoe Adul~ N31A1          
#>  2 PAL0708                 2 Gentoo penguin~ Anvers Biscoe Adul~ N31A2          
#>  3 PAL0708                 3 Gentoo penguin~ Anvers Biscoe Adul~ N32A1          
#>  4 PAL0708                 4 Gentoo penguin~ Anvers Biscoe Adul~ N32A2          
#>  5 PAL0708                 5 Gentoo penguin~ Anvers Biscoe Adul~ N33A1          
#>  6 PAL0708                 6 Gentoo penguin~ Anvers Biscoe Adul~ N33A2          
#>  7 PAL0708                 7 Gentoo penguin~ Anvers Biscoe Adul~ N34A1          
#>  8 PAL0708                 8 Gentoo penguin~ Anvers Biscoe Adul~ N34A2          
#>  9 PAL0708                 9 Gentoo penguin~ Anvers Biscoe Adul~ N35A1          
#> 10 PAL0708                10 Gentoo penguin~ Anvers Biscoe Adul~ N35A2          
#> # ... with 114 more rows, and 10 more variables: `Clutch Completion` <chr>,
#> #   `Date Egg` <date>, `Culmen Length (mm)` <dbl>, `Culmen Depth (mm)` <dbl>,
#> #   `Flipper Length (mm)` <dbl>, `Body Mass (g)` <dbl>, Sex <chr>,
#> #   `Delta 15 N (o/oo)` <dbl>, `Delta 13 C (o/oo)` <dbl>, Comments <chr>
```
…
